{
  "clothes": [
    {
      "name": "Crewneck T-Shirt",
      "id": "1",
      "price": "1000",
      "size": "M",
      "color": "white",
      "quantity": 10,
      "dateAdded": "12.06.19",
      "category": 3,
      "details": {
        "material": "cotton",
        "maintenance": "machine wash",
        "additional": "bla bla bla"
      },
      "images": ["1.jpg"],
      "inventory": 12,
      "description": "Lorem ipsum dolor sit amet, consectetur adipiscing elit, sed do eiusmod tempor incididunt ut labore et dolore magna aliqua"
    },
    {
      "name": "Crewneck T-Shirt",
      "id": "2",
      "price": "1200",
      "size": "M",
      "color": "white",
      "quantity": 10,
      "dateAdded": "12.06.19",
      "category": 3,
      "details": {
        "material": "cotton",
        "maintenance": "machine wash",
        "additional": "bla bla bla"
      },
      "images": ["2.jpg"],
      "inventory": 12,
      "description": "Lorem ipsum dolor sit amet, consectetur adipiscing elit, sed do eiusmod tempor incididunt ut labore et dolore magna aliqua"
    },
    {
      "name": "Crewneck T-Shirt",
      "id": "3",
      "price": "1500",
      "size": "M",
      "color": "white",
      "quantity": 10,
      "dateAdded": "12.06.19",
      "category": 3,
      "details": {
        "material": "cotton",
        "maintenance": "machine wash",
        "additional": "bla bla bla"
      },
      "images": ["3.jpg", "1.jpg", "2.jpg"],
      "inventory": 12,
      "description": "Lorem ipsum dolor sit amet, consectetur adipiscing elit, sed do eiusmod tempor incididunt ut labore et dolore magna aliqua"
    },
    {
      "name": "Crewneck T-Shirt",
      "id": "4",
      "price": "700",
      "size": "M",
      "color": "white",
      "quantity": 10,
      "dateAdded": "12.06.19",
      "category": 3,
      "details": {
        "material": "cotton",
        "maintenance": "machine wash",
        "additional": "bla bla bla"
      },
      "images": ["4.jpg", "1.jpg", "2.jpg"],
      "inventory": 12,
      "description": "Lorem ipsum dolor sit amet, consectetur adipiscing elit, sed do eiusmod tempor incididunt ut labore et dolore magna aliqua"
    },
    {
      "name": "Crewneck T-Shirt",
      "id": "5",
      "price": "700",
      "size": "M",
      "color": "white",
      "quantity": 10,
      "dateAdded": "12.06.19",
      "category": 3,
      "details": {
        "material": "cotton",
        "maintenance": "machine wash",
        "additional": "bla bla bla"
      },
      "images": ["5.jpg", "1.jpg", "2.jpg"],
      "inventory": 12,
      "description": "Lorem ipsum dolor sit amet, consectetur adipiscing elit, sed do eiusmod tempor incididunt ut labore et dolore magna aliqua"
    },
    {
      "name": "Crewneck T-Shirt",
      "id": "6",
      "price": "700",
      "size": "M",
      "color": "white",
      "quantity": 10,
      "dateAdded": "12.06.19",
      "category": 3,
      "details": {
        "material": "cotton",
        "maintenance": "machine wash",
        "additional": "bla bla bla"
      },
      "images": ["6.jpg", "1.jpg", "2.jpg"],
      "inventory": 12,
      "description": "Lorem ipsum dolor sit amet, consectetur adipiscing elit, sed do eiusmod tempor incididunt ut labore et dolore magna aliqua"
    },
    {
      "name": "Crewneck T-Shirt",
      "id": "7",
      "price": "700",
      "size": "M",
      "color": "white",
      "quantity": 10,
      "dateAdded": "12.06.19",
      "category": 3,
      "details": {
        "material": "cotton",
        "maintenance": "machine wash",
        "additional": "bla bla bla"
      },
      "images": ["7.jpg", "1.jpg", "2.jpg"],
      "inventory": 12,
      "description": "Lorem ipsum dolor sit amet, consectetur adipiscing elit, sed do eiusmod tempor incididunt ut labore et dolore magna aliqua"
    },
    {
      "name": "Crewneck T-Shirt",
      "id": "8",
      "price": "700",
      "size": "M",
      "color": "white",
      "quantity": 10,
      "dateAdded": "12.06.19",
      "category": 3,
      "details": {
        "material": "cotton",
        "maintenance": "machine wash",
        "additional": "bla bla bla"
      },
      "images": ["8.jpg", "1.jpg", "2.jpg"],
      "inventory": 12,
      "description": "Lorem ipsum dolor sit amet, consectetur adipiscing elit, sed do eiusmod tempor incididunt ut labore et dolore magna aliqua"
    },
    {
      "name": "Crewneck T-Shirt",
      "id": "9",
      "price": "700",
      "size": "M",
      "color": "white",
      "quantity": 10,
      "dateAdded": "12.06.19",
      "category": 3,
      "details": {
        "material": "cotton",
        "maintenance": "machine wash",
        "additional": "bla bla bla"
      },
      "images": ["9.jpg"],
      "inventory": 12,
      "description": "Lorem ipsum dolor sit amet, consectetur adipiscing elit, sed do eiusmod tempor incididunt ut labore et dolore magna aliqua"
    },
    {
      "name": "Crewneck T-Shirt",
      "id": "10",
      "price": "700",
      "size": "M",
      "color": "white",
      "quantity": 10,
      "dateAdded": "12.06.19",
      "category": 3,
      "details": {
        "material": "cotton",
        "maintenance": "machine wash",
        "additional": "bla bla bla"
      },
      "images": ["10.jpg"],
      "inventory": 12,
      "description": "Lorem ipsum dolor sit amet, consectetur adipiscing elit, sed do eiusmod tempor incididunt ut labore et dolore magna aliqua"
    },
    {
      "name": "Crewneck T-Shirt",
      "id": "11",
      "price": "700",
      "size": "M",
      "color": "white",
      "quantity": 10,
      "dateAdded": "12.06.19",
      "category": 3,
      "details": {
        "material": "cotton",
        "maintenance": "machine wash",
        "additional": "bla bla bla"
      },
      "images": ["11.jpg"],
      "inventory": 12,
      "description": "Lorem ipsum dolor sit amet, consectetur adipiscing elit, sed do eiusmod tempor incididunt ut labore et dolore magna aliqua"
    },
    {
      "name": "Crewneck T-Shirt",
      "id": "12",
      "price": "700",
      "size": "M",
      "color": "white",
      "quantity": 10,
      "dateAdded": "12.06.19",
      "category": 3,
      "details": {
        "material": "cotton",
        "maintenance": "machine wash",
        "additional": "bla bla bla"
      },
      "images": ["12.jpg"],
      "inventory": 12,
      "description": "Lorem ipsum dolor sit amet, consectetur adipiscing elit, sed do eiusmod tempor incididunt ut labore et dolore magna aliqua"
    },
    {
      "name": "Crewneck T-Shirt",
      "id": "13",
      "price": "700",
      "size": "M",
      "color": "white",
      "quantity": 10,
      "dateAdded": "12.06.19",
      "category": 3,
      "details": {
        "material": "cotton",
        "maintenance": "machine wash",
        "additional": "bla bla bla"
      },
      "images": ["3.jpg"],
      "inventory": 12
    },
    {
      "name": "Crewneck T-Shirt",
      "id": "29",
      "price": "700",
      "size": "M",
      "color": "white",
      "quantity": 10,
      "dateAdded": "12.06.19",
      "category": 1,
      "details": {
        "material": "cotton",
        "maintenance": "machine wash",
        "additional": "bla bla bla"
      },
      "images": ["s1.jpg"],
      "inventory": 12,
      "description": "Lorem ipsum dolor sit amet, consectetur adipiscing elit, sed do eiusmod tempor incididunt ut labore et dolore magna aliqua"
    },
    {
      "name": "Crewneck T-Shirt",
      "id": "28",
      "price": "700",
      "size": "M",
      "color": "white",
      "quantity": 10,
      "dateAdded": "12.06.19",
      "category": 1,
      "details": {
        "material": "cotton",
        "maintenance": "machine wash",
        "additional": "bla bla bla"
      },
      "images": ["s2.jpg"],
      "inventory": 12,
      "description": "Lorem ipsum dolor sit amet, consectetur adipiscing elit, sed do eiusmod tempor incididunt ut labore et dolore magna aliqua"
    },
    {
      "name": "Crewneck T-Shirt",
      "id": "27",
      "price": "700",
      "size": "M",
      "color": "white",
      "quantity": 10,
      "dateAdded": "12.06.19",
      "category": 1,
      "details": {
        "material": "cotton",
        "maintenance": "machine wash",
        "additional": "bla bla bla"
      },
      "images": ["s3.jpg"],
      "inventory": 12,
      "description": "Lorem ipsum dolor sit amet, consectetur adipiscing elit, sed do eiusmod tempor incididunt ut labore et dolore magna aliqua"
    },
    {
      "name": "Crewneck T-Shirt",
      "id": "26",
      "price": "700",
      "size": "M",
      "color": "white",
      "quantity": 10,
      "dateAdded": "12.06.19",
      "category": 1,
      "details": {
        "material": "cotton",
        "maintenance": "machine wash",
        "additional": "bla bla bla"
      },
      "images": ["s4.jpg"],
      "inventory": 12,
      "description": "Lorem ipsum dolor sit amet, consectetur adipiscing elit, sed do eiusmod tempor incididunt ut labore et dolore magna aliqua"
    },
    {
      "name": "Crewneck T-Shirt",
      "id": "25",
      "price": "700",
      "size": "M",
      "color": "white",
      "quantity": 10,
      "dateAdded": "12.06.19",
      "category": 1,
      "details": {
        "material": "cotton",
        "maintenance": "machine wash",
        "additional": "bla bla bla"
      },
      "images": ["s5.jpg"],
      "inventory": 12,
      "description": "Lorem ipsum dolor sit amet, consectetur adipiscing elit, sed do eiusmod tempor incididunt ut labore et dolore magna aliqua"
    },
    {
      "name": "Crewneck T-Shirt",
      "id": "25",
      "price": "700",
      "size": "M",
      "color": "white",
      "quantity": 10,
      "dateAdded": "12.06.19",
      "category": 1,
      "details": {
        "material": "cotton",
        "maintenance": "machine wash",
        "additional": "bla bla bla"
      },
      "images": ["s6.jpg"],
      "inventory": 12,
      "description": "Lorem ipsum dolor sit amet, consectetur adipiscing elit, sed do eiusmod tempor incididunt ut labore et dolore magna aliqua"
    },
    {
      "name": "Crewneck T-Shirt",
      "id": "24",
      "price": "700",
      "size": "M",
      "color": "white",
      "quantity": 10,
      "dateAdded": "12.06.19",
      "category": 1,
      "details": {
        "material": "cotton",
        "maintenance": "machine wash",
        "additional": "bla bla bla"
      },
      "images": ["s7.jpg"],
      "inventory": 12,
      "description": "Lorem ipsum dolor sit amet, consectetur adipiscing elit, sed do eiusmod tempor incididunt ut labore et dolore magna aliqua"
    },
    {
      "name": "Crewneck T-Shirt",
      "id": "23",
      "price": "700",
      "size": "M",
      "color": "white",
      "quantity": 10,
      "dateAdded": "12.06.19",
      "category": 1,
      "details": {
        "material": "cotton",
        "maintenance": "machine wash",
        "additional": "bla bla bla"
      },
      "images": ["s8.jpg"],
      "inventory": 12,
      "description": "Lorem ipsum dolor sit amet, consectetur adipiscing elit, sed do eiusmod tempor incididunt ut labore et dolore magna aliqua"
    },
    {
      "name": "Crewneck T-Shirt",
      "id": "22",
      "price": "700",
      "size": "M",
      "color": "white",
      "quantity": 10,
      "dateAdded": "12.06.19",
      "category": 1,
      "details": {
        "material": "cotton",
        "maintenance": "machine wash",
        "additional": "bla bla bla"
      },
      "images": ["s9.jpg"],
      "inventory": 12,
      "description": "Lorem ipsum dolor sit amet, consectetur adipiscing elit, sed do eiusmod tempor incididunt ut labore et dolore magna aliqua"
    },
    {
      "name": "Crewneck T-Shirt",
      "id": "21",
      "price": "700",
      "size": "M",
      "color": "white",
      "quantity": 10,
      "dateAdded": "12.06.19",
      "category": 1,
      "details": {
        "material": "cotton",
        "maintenance": "machine wash",
        "additional": "bla bla bla"
      },
      "images": ["s10.jpg"],
      "inventory": 12,
      "description": "Lorem ipsum dolor sit amet, consectetur adipiscing elit, sed do eiusmod tempor incididunt ut labore et dolore magna aliqua"
    },
    {
      "name": "Crewneck T-Shirt",
      "id": "20",
      "price": "700",
      "size": "M",
      "color": "white",
      "quantity": 10,
      "dateAdded": "12.06.19",
      "category": 1,
      "details": {
        "material": "cotton",
        "maintenance": "machine wash",
        "additional": "bla bla bla"
      },
      "images": ["s11.jpg"],
      "inventory": 12,
      "description": "Lorem ipsum dolor sit amet, consectetur adipiscing elit, sed do eiusmod tempor incididunt ut labore et dolore magna aliqua"
    }
  ],
  "categories": [
    {
      "name": "Платья",
      "id": 1,
      "category": 3
    },
    {
      "name": "Блузки",
      "id": 2,
      "category": 3
    },
    {
      "name": "Рубашки",
      "id": 3,
      "category": 3
    },
    {
      "name": "Топы",
      "id": 4,
      "category": 3
    },
    {
      "name": "Пиджаки",
      "id": 5,
      "category": 3
    },
    {
      "name": "Брюки",
      "id": 6,
      "category": 3
    },
    {
      "name": "Джинсы",
      "id": 7,
      "category": 3
    }
  ]
}
